{
  "build": {
    "beforeDevCommand": "npm run dev",
    "beforeBuildCommand": "npm run build",
    "devPath": "http://localhost:1420",
    "distDir": "../dist",
    "withGlobalTauri": false
  },
  "package": {
    "productName": "horde",
    "version": "0.0.0"
  },
  "tauri": {
    "allowlist": {
      "all": false,
      "shell": {
        "all": false,
        "open": true
      },
      "dialog": {
        "all": true
      },
      "fs": {
        "all": true,
        "scope": [
          "*",
          "*/*",
          "*/*/*",
          "*/.horde/*",
          "*/.horde/*/*"
        ]
      },
      "path": {
        "all": true
      }
    },
    "bundle": {
      "active": true,
      "targets": "all",
      "identifier": "com.shiveringocelot.horde",
      "icon": [
        "icons/32x32.png",
        "icons/128x128.png",
        "icons/128x128@2x.png",
        "icons/icon.icns",
        "icons/icon.ico"
      ]
    },
    "security": {
      "csp": null
    },
    "windows": [
      {
        "fullscreen": false,
        "resizable": true,
        "title": "horde",
        "width": 800,
        "height": 600
      }
    ]
  }
}
